%YAML 1.1
%TAG !u! tag:unity3d.com,2011:
--- !u!1 &3628148483388141305
GameObject:
  m_ObjectHideFlags: 0
  m_CorrespondingSourceObject: {fileID: 0}
  m_PrefabInstance: {fileID: 0}
  m_PrefabAsset: {fileID: 0}
  serializedVersion: 6
  m_Component:
  - component: {fileID: 4801340093295149339}
  - component: {fileID: 1468442838039839511}
  m_Layer: 0
  m_Name: Tail2
  m_TagString: Untagged
  m_Icon: {fileID: 0}
  m_NavMeshLayer: 0
  m_StaticEditorFlags: 0
  m_IsActive: 1
--- !u!4 &4801340093295149339
Transform:
  m_ObjectHideFlags: 0
  m_CorrespondingSourceObject: {fileID: 0}
  m_PrefabInstance: {fileID: 0}
  m_PrefabAsset: {fileID: 0}
  m_GameObject: {fileID: 3628148483388141305}
  m_LocalRotation: {x: 0, y: 0, z: 0, w: 1}
  m_LocalPosition: {x: 0, y: 0, z: 0}
  m_LocalScale: {x: 1, y: 1, z: 1}
  m_Children:
  - {fileID: 6344090674759367961}
  m_Father: {fileID: 0}
  m_RootOrder: 0
  m_LocalEulerAnglesHint: {x: 0, y: 0, z: 0}
--- !u!114 &1468442838039839511
MonoBehaviour:
  m_ObjectHideFlags: 0
  m_CorrespondingSourceObject: {fileID: 0}
  m_PrefabInstance: {fileID: 0}
  m_PrefabAsset: {fileID: 0}
  m_GameObject: {fileID: 3628148483388141305}
  m_Enabled: 1
  m_EditorHideFlags: 0
  m_Script: {fileID: 11500000, guid: 3b13ac31891752245b1b6623a6235e01, type: 3}
  m_Name: 
  m_EditorClassIdentifier: 
  speed: 5
--- !u!1001 &8294093636377840212
PrefabInstance:
  m_ObjectHideFlags: 0
  serializedVersion: 2
  m_Modification:
    m_TransformParent: {fileID: 4801340093295149339}
    m_Modifications:
    - target: {fileID: 3103040534017963840, guid: 256cdf8c0141a2f43938162a941276e8,
        type: 3}
      propertyPath: m_Name
      value: Obstacle
      objectReference: {fileID: 0}
    - target: {fileID: 3103040534017963841, guid: 256cdf8c0141a2f43938162a941276e8,
        type: 3}
      propertyPath: m_Mesh
      value: 
      objectReference: {fileID: 0}
    - target: {fileID: 3103040534017963842, guid: 256cdf8c0141a2f43938162a941276e8,
        type: 3}
      propertyPath: m_SelectedFaces.Array.size
      value: 0
      objectReference: {fileID: 0}
    - target: {fileID: 3103040534017963842, guid: 256cdf8c0141a2f43938162a941276e8,
        type: 3}
      propertyPath: m_SelectedEdges.Array.size
      value: 0
      objectReference: {fileID: 0}
    - target: {fileID: 3103040534017963842, guid: 256cdf8c0141a2f43938162a941276e8,
        type: 3}
      propertyPath: m_SelectedVertices.Array.size
      value: 0
      objectReference: {fileID: 0}
    - target: {fileID: 3103040534017963842, guid: 256cdf8c0141a2f43938162a941276e8,
        type: 3}
      propertyPath: m_Positions.Array.data[1].x
      value: 1.8428254
      objectReference: {fileID: 0}
    - target: {fileID: 3103040534017963842, guid: 256cdf8c0141a2f43938162a941276e8,
        type: 3}
      propertyPath: m_Positions.Array.data[1].y
      value: -4.619159
      objectReference: {fileID: 0}
    - target: {fileID: 3103040534017963842, guid: 256cdf8c0141a2f43938162a941276e8,
        type: 3}
      propertyPath: m_Positions.Array.data[3].x
      value: 1.8428242
      objectReference: {fileID: 0}
    - target: {fileID: 3103040534017963842, guid: 256cdf8c0141a2f43938162a941276e8,
        type: 3}
      propertyPath: m_Positions.Array.data[3].y
      value: 3.4706998
      objectReference: {fileID: 0}
    - target: {fileID: 3103040534017963842, guid: 256cdf8c0141a2f43938162a941276e8,
        type: 3}
      propertyPath: m_Positions.Array.data[4].x
      value: 1.8428254
      objectReference: {fileID: 0}
    - target: {fileID: 3103040534017963842, guid: 256cdf8c0141a2f43938162a941276e8,
        type: 3}
      propertyPath: m_Positions.Array.data[4].y
      value: -4.619159
      objectReference: {fileID: 0}
    - target: {fileID: 3103040534017963842, guid: 256cdf8c0141a2f43938162a941276e8,
        type: 3}
      propertyPath: m_Positions.Array.data[5].x
      value: 1.8428254
      objectReference: {fileID: 0}
    - target: {fileID: 3103040534017963842, guid: 256cdf8c0141a2f43938162a941276e8,
        type: 3}
      propertyPath: m_Positions.Array.data[5].y
      value: -4.619159
      objectReference: {fileID: 0}
    - target: {fileID: 3103040534017963842, guid: 256cdf8c0141a2f43938162a941276e8,
        type: 3}
      propertyPath: m_Positions.Array.data[6].x
      value: 1.8428242
      objectReference: {fileID: 0}
    - target: {fileID: 3103040534017963842, guid: 256cdf8c0141a2f43938162a941276e8,
        type: 3}
      propertyPath: m_Positions.Array.data[6].y
      value: 3.4706998
      objectReference: {fileID: 0}
    - target: {fileID: 3103040534017963842, guid: 256cdf8c0141a2f43938162a941276e8,
        type: 3}
      propertyPath: m_Positions.Array.data[7].x
      value: 1.8428242
      objectReference: {fileID: 0}
    - target: {fileID: 3103040534017963842, guid: 256cdf8c0141a2f43938162a941276e8,
        type: 3}
      propertyPath: m_Positions.Array.data[7].y
      value: 3.4706998
      objectReference: {fileID: 0}
    - target: {fileID: 3103040534017963842, guid: 256cdf8c0141a2f43938162a941276e8,
        type: 3}
      propertyPath: m_Positions.Array.data[7].z
      value: -1
      objectReference: {fileID: 0}
    - target: {fileID: 3103040534017963842, guid: 256cdf8c0141a2f43938162a941276e8,
        type: 3}
      propertyPath: m_Positions.Array.data[8].x
      value: 1.8428254
      objectReference: {fileID: 0}
    - target: {fileID: 3103040534017963842, guid: 256cdf8c0141a2f43938162a941276e8,
        type: 3}
      propertyPath: m_Positions.Array.data[8].y
      value: -4.619159
      objectReference: {fileID: 0}
    - target: {fileID: 3103040534017963842, guid: 256cdf8c0141a2f43938162a941276e8,
        type: 3}
      propertyPath: m_Positions.Array.data[10].x
      value: 1.8428242
      objectReference: {fileID: 0}
    - target: {fileID: 3103040534017963842, guid: 256cdf8c0141a2f43938162a941276e8,
        type: 3}
      propertyPath: m_Positions.Array.data[10].y
      value: 3.4706998
      objectReference: {fileID: 0}
    - target: {fileID: 3103040534017963842, guid: 256cdf8c0141a2f43938162a941276e8,
        type: 3}
      propertyPath: m_Positions.Array.data[10].z
      value: -1
      objectReference: {fileID: 0}
    - target: {fileID: 3103040534017963842, guid: 256cdf8c0141a2f43938162a941276e8,
        type: 3}
      propertyPath: m_Positions.Array.data[17].x
      value: 1.8428242
      objectReference: {fileID: 0}
    - target: {fileID: 3103040534017963842, guid: 256cdf8c0141a2f43938162a941276e8,
        type: 3}
      propertyPath: m_Positions.Array.data[17].y
      value: 3.4706998
      objectReference: {fileID: 0}
    - target: {fileID: 3103040534017963842, guid: 256cdf8c0141a2f43938162a941276e8,
        type: 3}
      propertyPath: m_Positions.Array.data[19].x
      value: 1.8428242
      objectReference: {fileID: 0}
    - target: {fileID: 3103040534017963842, guid: 256cdf8c0141a2f43938162a941276e8,
        type: 3}
      propertyPath: m_Positions.Array.data[19].y
      value: 3.4706998
      objectReference: {fileID: 0}
    - target: {fileID: 3103040534017963842, guid: 256cdf8c0141a2f43938162a941276e8,
        type: 3}
      propertyPath: m_Positions.Array.data[19].z
      value: -1
      objectReference: {fileID: 0}
    - target: {fileID: 3103040534017963842, guid: 256cdf8c0141a2f43938162a941276e8,
        type: 3}
      propertyPath: m_Positions.Array.data[21].x
      value: 1.8428254
      objectReference: {fileID: 0}
    - target: {fileID: 3103040534017963842, guid: 256cdf8c0141a2f43938162a941276e8,
        type: 3}
      propertyPath: m_Positions.Array.data[21].y
      value: -4.619159
      objectReference: {fileID: 0}
    - target: {fileID: 3103040534017963842, guid: 256cdf8c0141a2f43938162a941276e8,
        type: 3}
      propertyPath: m_Positions.Array.data[23].x
      value: 1.8428254
      objectReference: {fileID: 0}
    - target: {fileID: 3103040534017963842, guid: 256cdf8c0141a2f43938162a941276e8,
        type: 3}
      propertyPath: m_Positions.Array.data[23].y
      value: -4.619159
      objectReference: {fileID: 0}
    - target: {fileID: 3103040534017963842, guid: 256cdf8c0141a2f43938162a941276e8,
        type: 3}
      propertyPath: m_Textures0.Array.data[1].x
      value: -1.8428254
      objectReference: {fileID: 0}
    - target: {fileID: 3103040534017963842, guid: 256cdf8c0141a2f43938162a941276e8,
        type: 3}
      propertyPath: m_Textures0.Array.data[1].y
      value: -4.619159
      objectReference: {fileID: 0}
    - target: {fileID: 3103040534017963842, guid: 256cdf8c0141a2f43938162a941276e8,
        type: 3}
      propertyPath: m_Textures0.Array.data[3].x
      value: -1.8428242
      objectReference: {fileID: 0}
    - target: {fileID: 3103040534017963842, guid: 256cdf8c0141a2f43938162a941276e8,
        type: 3}
      propertyPath: m_Textures0.Array.data[3].y
      value: 3.4706998
      objectReference: {fileID: 0}
    - target: {fileID: 3103040534017963842, guid: 256cdf8c0141a2f43938162a941276e8,
        type: 3}
      propertyPath: m_Textures0.Array.data[4].y
      value: -4.6191597
      objectReference: {fileID: 0}
    - target: {fileID: 3103040534017963842, guid: 256cdf8c0141a2f43938162a941276e8,
        type: 3}
      propertyPath: m_Textures0.Array.data[5].y
      value: -4.6191597
      objectReference: {fileID: 0}
    - target: {fileID: 3103040534017963842, guid: 256cdf8c0141a2f43938162a941276e8,
        type: 3}
      propertyPath: m_Textures0.Array.data[6].y
      value: 3.4706995
      objectReference: {fileID: 0}
    - target: {fileID: 3103040534017963842, guid: 256cdf8c0141a2f43938162a941276e8,
        type: 3}
      propertyPath: m_Textures0.Array.data[7].x
      value: -1
      objectReference: {fileID: 0}
    - target: {fileID: 3103040534017963842, guid: 256cdf8c0141a2f43938162a941276e8,
        type: 3}
      propertyPath: m_Textures0.Array.data[7].y
      value: 3.4706995
      objectReference: {fileID: 0}
    - target: {fileID: 3103040534017963842, guid: 256cdf8c0141a2f43938162a941276e8,
        type: 3}
      propertyPath: m_Textures0.Array.data[8].x
      value: 1.8428254
      objectReference: {fileID: 0}
    - target: {fileID: 3103040534017963842, guid: 256cdf8c0141a2f43938162a941276e8,
        type: 3}
      propertyPath: m_Textures0.Array.data[8].y
      value: -4.619159
      objectReference: {fileID: 0}
    - target: {fileID: 3103040534017963842, guid: 256cdf8c0141a2f43938162a941276e8,
        type: 3}
      propertyPath: m_Textures0.Array.data[9].y
      value: -4.6191587
      objectReference: {fileID: 0}
    - target: {fileID: 3103040534017963842, guid: 256cdf8c0141a2f43938162a941276e8,
        type: 3}
      propertyPath: m_Textures0.Array.data[10].x
      value: 1.8428242
      objectReference: {fileID: 0}
    - target: {fileID: 3103040534017963842, guid: 256cdf8c0141a2f43938162a941276e8,
        type: 3}
      propertyPath: m_Textures0.Array.data[10].y
      value: 3.4706998
      objectReference: {fileID: 0}
    - target: {fileID: 3103040534017963842, guid: 256cdf8c0141a2f43938162a941276e8,
        type: 3}
      propertyPath: m_Textures0.Array.data[16].x
      value: 0.0000008980555
      objectReference: {fileID: 0}
    - target: {fileID: 3103040534017963842, guid: 256cdf8c0141a2f43938162a941276e8,
        type: 3}
      propertyPath: m_Textures0.Array.data[17].x
      value: 1.8428252
      objectReference: {fileID: 0}
    - target: {fileID: 3103040534017963842, guid: 256cdf8c0141a2f43938162a941276e8,
        type: 3}
      propertyPath: m_Textures0.Array.data[18].x
      value: 0.0000008980555
      objectReference: {fileID: 0}
    - target: {fileID: 3103040534017963842, guid: 256cdf8c0141a2f43938162a941276e8,
        type: 3}
      propertyPath: m_Textures0.Array.data[19].x
      value: 1.8428252
      objectReference: {fileID: 0}
    - target: {fileID: 3103040534017963842, guid: 256cdf8c0141a2f43938162a941276e8,
        type: 3}
      propertyPath: m_Textures0.Array.data[19].y
      value: -1
      objectReference: {fileID: 0}
    - target: {fileID: 3103040534017963842, guid: 256cdf8c0141a2f43938162a941276e8,
        type: 3}
      propertyPath: m_Textures0.Array.data[21].x
      value: -1.8428266
      objectReference: {fileID: 0}
    - target: {fileID: 3103040534017963842, guid: 256cdf8c0141a2f43938162a941276e8,
        type: 3}
      propertyPath: m_Textures0.Array.data[23].x
      value: -1.8428266
      objectReference: {fileID: 0}
    - target: {fileID: 3103040534017963842, guid: 256cdf8c0141a2f43938162a941276e8,
        type: 3}
      propertyPath: m_Tangents.Array.data[9].z
      value: 0.000000032344186
      objectReference: {fileID: 0}
    - target: {fileID: 3103040534017963842, guid: 256cdf8c0141a2f43938162a941276e8,
        type: 3}
      propertyPath: m_Tangents.Array.data[10].z
      value: 0.000000032344186
      objectReference: {fileID: 0}
    - target: {fileID: 3103040534017963842, guid: 256cdf8c0141a2f43938162a941276e8,
        type: 3}
      propertyPath: m_Tangents.Array.data[11].z
      value: 0.00000006468837
      objectReference: {fileID: 0}
    - target: {fileID: 3103040534017963842, guid: 256cdf8c0141a2f43938162a941276e8,
        type: 3}
      propertyPath: m_Tangents.Array.data[16].y
      value: 0.00000025875346
      objectReference: {fileID: 0}
    - target: {fileID: 3103040534017963842, guid: 256cdf8c0141a2f43938162a941276e8,
        type: 3}
      propertyPath: m_Tangents.Array.data[17].y
      value: 0.00000025875346
      objectReference: {fileID: 0}
    - target: {fileID: 3103040534017963842, guid: 256cdf8c0141a2f43938162a941276e8,
        type: 3}
      propertyPath: m_Tangents.Array.data[18].y
      value: 0.00000025875346
      objectReference: {fileID: 0}
    - target: {fileID: 3103040534017963842, guid: 256cdf8c0141a2f43938162a941276e8,
        type: 3}
      propertyPath: m_Tangents.Array.data[19].y
      value: 0.00000025875346
      objectReference: {fileID: 0}
    - target: {fileID: 3103040534017963842, guid: 256cdf8c0141a2f43938162a941276e8,
        type: 3}
      propertyPath: m_Tangents.Array.data[20].y
      value: 0.0000002587533
      objectReference: {fileID: 0}
    - target: {fileID: 3103040534017963842, guid: 256cdf8c0141a2f43938162a941276e8,
        type: 3}
      propertyPath: m_Tangents.Array.data[21].y
      value: 0.0000002587533
      objectReference: {fileID: 0}
    - target: {fileID: 3103040534017963842, guid: 256cdf8c0141a2f43938162a941276e8,
        type: 3}
      propertyPath: m_Tangents.Array.data[22].y
      value: 0.0000002587533
      objectReference: {fileID: 0}
    - target: {fileID: 3103040534017963842, guid: 256cdf8c0141a2f43938162a941276e8,
        type: 3}
      propertyPath: m_Tangents.Array.data[23].y
      value: 0.0000002587533
      objectReference: {fileID: 0}
    - target: {fileID: 3103040534017963842, guid: 256cdf8c0141a2f43938162a941276e8,
        type: 3}
      propertyPath: m_SelectedFaces.Array.data[0]
      value: 5
      objectReference: {fileID: 0}
    - target: {fileID: 3103040534017963842, guid: 256cdf8c0141a2f43938162a941276e8,
        type: 3}
      propertyPath: m_SelectedEdges.Array.data[0].a
      value: 20
      objectReference: {fileID: 0}
    - target: {fileID: 3103040534017963842, guid: 256cdf8c0141a2f43938162a941276e8,
        type: 3}
      propertyPath: m_SelectedEdges.Array.data[0].b
      value: 21
      objectReference: {fileID: 0}
    - target: {fileID: 3103040534017963842, guid: 256cdf8c0141a2f43938162a941276e8,
        type: 3}
      propertyPath: m_SelectedEdges.Array.data[1].a
      value: 22
      objectReference: {fileID: 0}
    - target: {fileID: 3103040534017963842, guid: 256cdf8c0141a2f43938162a941276e8,
        type: 3}
      propertyPath: m_SelectedEdges.Array.data[1].b
      value: 20
      objectReference: {fileID: 0}
    - target: {fileID: 3103040534017963842, guid: 256cdf8c0141a2f43938162a941276e8,
        type: 3}
      propertyPath: m_SelectedEdges.Array.data[2].a
      value: 21
      objectReference: {fileID: 0}
    - target: {fileID: 3103040534017963842, guid: 256cdf8c0141a2f43938162a941276e8,
        type: 3}
      propertyPath: m_SelectedEdges.Array.data[2].b
      value: 23
      objectReference: {fileID: 0}
    - target: {fileID: 3103040534017963842, guid: 256cdf8c0141a2f43938162a941276e8,
        type: 3}
      propertyPath: m_SelectedEdges.Array.data[3].a
      value: 23
      objectReference: {fileID: 0}
    - target: {fileID: 3103040534017963842, guid: 256cdf8c0141a2f43938162a941276e8,
        type: 3}
      propertyPath: m_SelectedEdges.Array.data[3].b
      value: 22
      objectReference: {fileID: 0}
    - target: {fileID: 3103040534017963842, guid: 256cdf8c0141a2f43938162a941276e8,
        type: 3}
      propertyPath: m_SelectedVertices.Array.data[0]
      value: 20
      objectReference: {fileID: 0}
    - target: {fileID: 3103040534017963842, guid: 256cdf8c0141a2f43938162a941276e8,
        type: 3}
      propertyPath: m_SelectedVertices.Array.data[1]
      value: 21
      objectReference: {fileID: 0}
    - target: {fileID: 3103040534017963842, guid: 256cdf8c0141a2f43938162a941276e8,
        type: 3}
      propertyPath: m_SelectedVertices.Array.data[2]
      value: 22
      objectReference: {fileID: 0}
    - target: {fileID: 3103040534017963842, guid: 256cdf8c0141a2f43938162a941276e8,
        type: 3}
      propertyPath: m_SelectedVertices.Array.data[3]
      value: 23
      objectReference: {fileID: 0}
    - target: {fileID: 3103040534017963842, guid: 256cdf8c0141a2f43938162a941276e8,
        type: 3}
      propertyPath: m_Positions.Array.data[0].x
      value: 0.000000030460164
      objectReference: {fileID: 0}
    - target: {fileID: 3103040534017963842, guid: 256cdf8c0141a2f43938162a941276e8,
        type: 3}
      propertyPath: m_Positions.Array.data[0].y
      value: -4.6191587
      objectReference: {fileID: 0}
    - target: {fileID: 3103040534017963842, guid: 256cdf8c0141a2f43938162a941276e8,
        type: 3}
      propertyPath: m_Positions.Array.data[9].x
      value: 0.000000030460164
      objectReference: {fileID: 0}
    - target: {fileID: 3103040534017963842, guid: 256cdf8c0141a2f43938162a941276e8,
        type: 3}
      propertyPath: m_Positions.Array.data[9].y
      value: -4.6191587
      objectReference: {fileID: 0}
    - target: {fileID: 3103040534017963842, guid: 256cdf8c0141a2f43938162a941276e8,
        type: 3}
      propertyPath: m_Positions.Array.data[12].x
      value: 0.000000030460164
      objectReference: {fileID: 0}
    - target: {fileID: 3103040534017963842, guid: 256cdf8c0141a2f43938162a941276e8,
        type: 3}
      propertyPath: m_Positions.Array.data[12].y
      value: -4.6191587
      objectReference: {fileID: 0}
    - target: {fileID: 3103040534017963842, guid: 256cdf8c0141a2f43938162a941276e8,
        type: 3}
      propertyPath: m_Positions.Array.data[13].x
      value: 0.000000030460164
      objectReference: {fileID: 0}
    - target: {fileID: 3103040534017963842, guid: 256cdf8c0141a2f43938162a941276e8,
        type: 3}
      propertyPath: m_Positions.Array.data[13].y
      value: -4.6191587
      objectReference: {fileID: 0}
    - target: {fileID: 3103040534017963842, guid: 256cdf8c0141a2f43938162a941276e8,
        type: 3}
      propertyPath: m_Positions.Array.data[20].x
      value: 0.000000030460164
      objectReference: {fileID: 0}
    - target: {fileID: 3103040534017963842, guid: 256cdf8c0141a2f43938162a941276e8,
        type: 3}
      propertyPath: m_Positions.Array.data[20].y
      value: -4.6191587
      objectReference: {fileID: 0}
    - target: {fileID: 3103040534017963842, guid: 256cdf8c0141a2f43938162a941276e8,
        type: 3}
      propertyPath: m_Positions.Array.data[22].x
      value: 0.000000030460164
      objectReference: {fileID: 0}
    - target: {fileID: 3103040534017963842, guid: 256cdf8c0141a2f43938162a941276e8,
        type: 3}
      propertyPath: m_Positions.Array.data[22].y
      value: -4.6191587
      objectReference: {fileID: 0}
    - target: {fileID: 3103040534017963842, guid: 256cdf8c0141a2f43938162a941276e8,
        type: 3}
      propertyPath: m_Textures0.Array.data[0].x
      value: -0.000000030460164
      objectReference: {fileID: 0}
    - target: {fileID: 3103040534017963842, guid: 256cdf8c0141a2f43938162a941276e8,
        type: 3}
      propertyPath: m_Textures0.Array.data[0].y
      value: -4.6191587
      objectReference: {fileID: 0}
    - target: {fileID: 3103040534017963842, guid: 256cdf8c0141a2f43938162a941276e8,
        type: 3}
      propertyPath: m_Textures0.Array.data[9].x
      value: 0.000000030460164
      objectReference: {fileID: 0}
    - target: {fileID: 3103040534017963842, guid: 256cdf8c0141a2f43938162a941276e8,
        type: 3}
      propertyPath: m_Textures0.Array.data[12].y
      value: -4.6191587
      objectReference: {fileID: 0}
    - target: {fileID: 3103040534017963842, guid: 256cdf8c0141a2f43938162a941276e8,
        type: 3}
      propertyPath: m_Textures0.Array.data[13].x
      value: -0
      objectReference: {fileID: 0}
    - target: {fileID: 3103040534017963842, guid: 256cdf8c0141a2f43938162a941276e8,
        type: 3}
      propertyPath: m_Textures0.Array.data[13].y
      value: -4.6191587
      objectReference: {fileID: 0}
    - target: {fileID: 3103040534017963842, guid: 256cdf8c0141a2f43938162a941276e8,
        type: 3}
      propertyPath: m_Textures0.Array.data[20].x
      value: -0.0000012256827
      objectReference: {fileID: 0}
    - target: {fileID: 3103040534017963842, guid: 256cdf8c0141a2f43938162a941276e8,
        type: 3}
      propertyPath: m_Textures0.Array.data[22].x
      value: -0.0000012256827
      objectReference: {fileID: 0}
    - target: {fileID: 3103040534017963842, guid: 256cdf8c0141a2f43938162a941276e8,
        type: 3}
      propertyPath: m_Tangents.Array.data[9].y
      value: -2.6175766e-23
      objectReference: {fileID: 0}
    - target: {fileID: 3103040534017963842, guid: 256cdf8c0141a2f43938162a941276e8,
        type: 3}
      propertyPath: m_Tangents.Array.data[10].y
      value: -2.6175766e-23
      objectReference: {fileID: 0}
    - target: {fileID: 3103040534017963842, guid: 256cdf8c0141a2f43938162a941276e8,
        type: 3}
      propertyPath: m_Tangents.Array.data[11].y
      value: -1.04703066e-22
      objectReference: {fileID: 0}
    - target: {fileID: 3103040534017963852, guid: 256cdf8c0141a2f43938162a941276e8,
        type: 3}
      propertyPath: m_Mesh
      value: 
      objectReference: {fileID: 0}
    - target: {fileID: 3103040534017963853, guid: 256cdf8c0141a2f43938162a941276e8,
        type: 3}
      propertyPath: m_LocalPosition.x
      value: -0.57422966
      objectReference: {fileID: 0}
    - target: {fileID: 3103040534017963853, guid: 256cdf8c0141a2f43938162a941276e8,
        type: 3}
      propertyPath: m_LocalPosition.y
      value: -0.9214129
      objectReference: {fileID: 0}
    - target: {fileID: 3103040534017963853, guid: 256cdf8c0141a2f43938162a941276e8,
        type: 3}
      propertyPath: m_LocalPosition.z
      value: 0.5000001
      objectReference: {fileID: 0}
    - target: {fileID: 3103040534017963853, guid: 256cdf8c0141a2f43938162a941276e8,
        type: 3}
      propertyPath: m_LocalRotation.x
      value: -0
      objectReference: {fileID: 0}
    - target: {fileID: 3103040534017963853, guid: 256cdf8c0141a2f43938162a941276e8,
        type: 3}
      propertyPath: m_LocalRotation.y
      value: -0
      objectReference: {fileID: 0}
    - target: {fileID: 3103040534017963853, guid: 256cdf8c0141a2f43938162a941276e8,
        type: 3}
      propertyPath: m_LocalRotation.z
      value: 0.7071068
      objectReference: {fileID: 0}
    - target: {fileID: 3103040534017963853, guid: 256cdf8c0141a2f43938162a941276e8,
        type: 3}
      propertyPath: m_LocalRotation.w
      value: 0.7071068
      objectReference: {fileID: 0}
    - target: {fileID: 3103040534017963853, guid: 256cdf8c0141a2f43938162a941276e8,
        type: 3}
      propertyPath: m_RootOrder
      value: 0
      objectReference: {fileID: 0}
    - target: {fileID: 3103040534017963853, guid: 256cdf8c0141a2f43938162a941276e8,
        type: 3}
      propertyPath: m_LocalEulerAnglesHint.x
      value: 0
      objectReference: {fileID: 0}
    - target: {fileID: 3103040534017963853, guid: 256cdf8c0141a2f43938162a941276e8,
        type: 3}
      propertyPath: m_LocalEulerAnglesHint.y
      value: 0
      objectReference: {fileID: 0}
    - target: {fileID: 3103040534017963853, guid: 256cdf8c0141a2f43938162a941276e8,
        type: 3}
      propertyPath: m_LocalEulerAnglesHint.z
      value: 90
      objectReference: {fileID: 0}
    m_RemovedComponents: []
  m_SourcePrefab: {fileID: 100100000, guid: 256cdf8c0141a2f43938162a941276e8, type: 3}
--- !u!4 &6344090674759367961 stripped
Transform:
  m_CorrespondingSourceObject: {fileID: 3103040534017963853, guid: 256cdf8c0141a2f43938162a941276e8,
    type: 3}
  m_PrefabInstance: {fileID: 8294093636377840212}
  m_PrefabAsset: {fileID: 0}
